Birte, ,lehrer,studis
Eva, ,lehrer,dieBesten
Caren, ,dieBesten,elfen
Benita, ,elfen,gruppe a
Brigitte, ,lehrer,elfen
Paulina, ,studis,elfen
Bettina, ,dieBesten,studis
Emely, ,lehrer,elfen
Carla, ,lehrer,studis
Allissa, ,lehrer,studis
Caecilia, ,gruppe a,elfen
Simone, ,studis,elfen
Arzu, ,elfen,dieBesten
Annika, ,lehrer,dieBesten
Edda, ,elfen,gruppe a
Aaliyah, ,dieBesten,elfen
Annabelle, ,dieBesten,studis
Bianca, ,lehrer,elfen
Ella, ,studis,dieBesten
Frieda, ,dieBesten,elfen
Alma, ,elfen,gruppe a
Meike, ,dieBesten,elfen
Aini, ,elfen,lehrer
Abigail, ,lehrer,gruppe a
Elena, ,gruppe a,dieBesten
Maya, ,gruppe a,lehrer
Barbara, ,gruppe a,elfen
Katharina, ,elfen,lehrer
Ariane, ,lehrer,dieBesten
Mia, ,gruppe a,lehrer
Berenike, ,studis,dieBesten
Bentje, ,dieBesten,gruppe a
Charlotte, ,elfen,lehrer
Adriana, ,studis,lehrer
Anouk, ,dieBesten,lehrer
Finja, ,studis,elfen
Theresa, ,gruppe a,elfen
Ava, ,elfen,lehrer
Alba, ,elfen,gruppe a
Alexandra, ,studis,dieBesten
Berit, ,lehrer,elfen
Caroline, ,studis,elfen
Anna, ,studis,elfen
Bente, ,elfen,gruppe a
Astrid, ,dieBesten,elfen
Susanne, ,dieBesten,elfen
Elisabeth, ,lehrer,gruppe a
Juna, ,dieBesten,lehrer
Luise, ,studis,gruppe a
Aglaia, ,dieBesten,elfen
Rosa, ,gruppe a,studis
Antke, ,gruppe a,studis
Aamenah, ,lehrer,gruppe a
Romy, ,lehrer,gruppe a
Aideen, ,elfen,lehrer
Bamika, ,elfen,dieBesten
Amy, ,elfen,studis
Julia, ,gruppe a,dieBesten
Andrea, ,dieBesten,gruppe a
Amelie, ,lehrer,dieBesten
Christiane, ,elfen,lehrer
Aida, ,gruppe a,studis
Alicia, ,gruppe a,lehrer
Catherina, ,gruppe a,elfen
Flora, ,gruppe a,dieBesten
Anisha, ,gruppe a,lehrer
Augusta, ,gruppe a,dieBesten
Arielle, ,elfen,lehrer
Anette, ,elfen,gruppe a
Aamu, ,elfen,lehrer
Selma, ,elfen,gruppe a
Annegret, ,dieBesten,studis
Lucy, ,elfen,dieBesten
Wilma, ,dieBesten,gruppe a
Blanka, ,elfen,dieBesten
