('E:\\Programmieren\\nina-programm\\build\\main\\PKG-00.pkg',
 {'BINARY': 1,
  'DATA': 1,
  'EXECUTABLE': 1,
  'EXTENSION': 1,
  'PYMODULE': 1,
  'PYSOURCE': 1,
  'PYZ': 0},
 [('PYZ-00.pyz',
   'E:\\Programmieren\\nina-programm\\build\\main\\PYZ-00.pyz',
   'PYZ'),
  ('struct',
   'E:\\Programmieren\\nina-programm\\build\\main\\localpycos\\struct.pyo',
   'PYMODULE'),
  ('pyimod01_os_path',
   'C:\\Users\\Dl\\AppData\\Roaming\\Python\\Python39\\site-packages\\PyInstaller\\loader\\pyimod01_os_path.pyc',
   'PYMODULE'),
  ('pyimod02_archive',
   'C:\\Users\\Dl\\AppData\\Roaming\\Python\\Python39\\site-packages\\PyInstaller\\loader\\pyimod02_archive.pyc',
   'PYMODULE'),
  ('pyimod03_importers',
   'C:\\Users\\Dl\\AppData\\Roaming\\Python\\Python39\\site-packages\\PyInstaller\\loader\\pyimod03_importers.pyc',
   'PYMODULE'),
  ('pyiboot01_bootstrap',
   'C:\\Users\\Dl\\AppData\\Roaming\\Python\\Python39\\site-packages\\PyInstaller\\loader\\pyiboot01_bootstrap.py',
   'PYSOURCE'),
  ('pyi_rth_multiprocessing',
   'C:\\Users\\Dl\\AppData\\Roaming\\Python\\Python39\\site-packages\\PyInstaller\\hooks\\rthooks\\pyi_rth_multiprocessing.py',
   'PYSOURCE'),
  ('main', 'E:\\Programmieren\\nina-programm\\main.py', 'PYSOURCE'),
  ('VCRUNTIME140.dll', 'c:\\program files\\python\\VCRUNTIME140.dll', 'BINARY'),
  ('python39.dll', 'c:\\program files\\python\\python39.dll', 'BINARY'),
  ('_multiprocessing',
   'c:\\program files\\python\\DLLs\\_multiprocessing.pyd',
   'EXTENSION'),
  ('unicodedata',
   'c:\\program files\\python\\DLLs\\unicodedata.pyd',
   'EXTENSION'),
  ('select', 'c:\\program files\\python\\DLLs\\select.pyd', 'EXTENSION'),
  ('_socket', 'c:\\program files\\python\\DLLs\\_socket.pyd', 'EXTENSION'),
  ('_lzma', 'c:\\program files\\python\\DLLs\\_lzma.pyd', 'EXTENSION'),
  ('_bz2', 'c:\\program files\\python\\DLLs\\_bz2.pyd', 'EXTENSION'),
  ('pyexpat', 'c:\\program files\\python\\DLLs\\pyexpat.pyd', 'EXTENSION'),
  ('_ssl', 'c:\\program files\\python\\DLLs\\_ssl.pyd', 'EXTENSION'),
  ('_hashlib', 'c:\\program files\\python\\DLLs\\_hashlib.pyd', 'EXTENSION'),
  ('_decimal', 'c:\\program files\\python\\DLLs\\_decimal.pyd', 'EXTENSION'),
  ('_overlapped',
   'c:\\program files\\python\\DLLs\\_overlapped.pyd',
   'EXTENSION'),
  ('_asyncio', 'c:\\program files\\python\\DLLs\\_asyncio.pyd', 'EXTENSION'),
  ('_queue', 'c:\\program files\\python\\DLLs\\_queue.pyd', 'EXTENSION'),
  ('_ctypes', 'c:\\program files\\python\\DLLs\\_ctypes.pyd', 'EXTENSION'),
  ('libcrypto-1_1.dll',
   'c:\\program files\\python\\DLLs\\libcrypto-1_1.dll',
   'BINARY'),
  ('libssl-1_1.dll',
   'c:\\program files\\python\\DLLs\\libssl-1_1.dll',
   'BINARY'),
  ('libffi-7.dll', 'c:\\program files\\python\\DLLs\\libffi-7.dll', 'BINARY'),
  ('base_library.zip',
   'E:\\Programmieren\\nina-programm\\build\\main\\base_library.zip',
   'DATA'),
  ('Include\\pyconfig.h',
   'c:\\program files\\python\\Include\\pyconfig.h',
   'DATA'),
  ('main.exe.manifest',
   'E:\\Programmieren\\nina-programm\\build\\main\\main.exe.manifest',
   'BINARY'),
  ('pyi-windows-manifest-filename main.exe.manifest', '', 'OPTION')],
 False,
 False,
 False,
 [])
